Advanced Programming in R
…
## # A tibble: 2 x 10
##   carat     cut color clarity depth table price     x     y     z
##   <dbl>   <ord> <ord>   <ord> <dbl> <dbl> <int> <dbl> <dbl> <dbl>
## 1  3.01 Premium     F      I1  62.2    56  9925  9.24  9.13  5.73
## 2  3.05 Premium     E      I1  60.9    58 10453  9.26  9.25  5.66

Selecting columns via select()

Selecting specific columns from a dataset follows a similar syntax to filter() and works analogous to SQL standards. Again, the first argument represents the dataset under consideration followed by the desired column names (without double quotes).

dplyr::select(diamonds, carat, cut, color, clarity)

## # A tibble: 53,940 x 4
##    carat       cut color clarity
##    <dbl>     <ord> <ord>   <ord>
##  1  0.23     Ideal     E     SI2
##  2  0.21   Premium     E     SI1
##  3  0.23      Good     E     VS1
##  4  0.29   Premium     I     VS2
##  5  0.31      Good     J     SI2
##  6  0.24 Very Good     J    VVS2
##  7  0.24 Very Good     I    VVS1
##  8  0.26 Very Good     H     SI1
##  9  0.22      Fair     E     VS2
## 10  0.23 Very Good     H     VS1
## # ... with 53,930 more rows

Note that both the use of c() to combine the single column names into a vector as well as the need for double quotes became obsolete. In addition to this, column names may be treated analogous to numeric indices, eliminating the need to count columns when desiring to extract several consecutive columns from a rather wide datasets.

dplyr::select(diamonds, carat:clarity, price)

## # A tibble: 53,940 x 5
##    carat       cut color clarity price
##    <dbl>     <ord> <ord>   <ord> <int>
##  1  0.23     Ideal     E     SI2   326
##  2  0.21   Premium     E     SI1   326
##  3  0.23      Good     E     VS1   327
##  4  0.29   Premium     I     VS2   334
##  5  0.31      Good     J     SI2   335
##  6  0.24 Very Good     J    VVS2   336
##  7  0.24 Very Good     I    VVS1   336
##  8  0.26 Very Good     H     SI1   337
##  9  0.22      Fair     E     VS2   337
## 10  0.23 Very Good     H     VS1   338
## # ... with 53,930 more rows
…
Again, the dplyr approach is much simpler and can be done in one go.

diamonds %>%
  dplyr::select(color, price, carat) %>%
  arrange(color, price, desc(carat))

## # A tibble: 53,940 x 3
##    color price carat
##    <ord> <int> <dbl>
##  1     D   357  0.23
##  2     D   357  0.23
##  3     D   361  0.32
##  4     D   362  0.23
##  5     D   367  0.24
##  6     D   367  0.20
##  7     D   367  0.20
##  8     D   367  0.20
##  9     D   373  0.24
## 10     D   373  0.23
## # ... with 53,930 more rows

Adding new columns via mutate()

mutate() lets you add new variables to an existing data frame. It is basically an extended version of base-R transform() in the sense that it allows you to directly work with columns you’ve just created.

diamonds %>%
  dplyr::select(color, carat, price) %>%
  mutate(ppc = price / carat, 
         ppc_rnd = round(ppc, 2))

## # A tibble: 53,940 x 5
##    color carat price      ppc ppc_rnd
##    <ord> <dbl> <int>    <dbl>   <dbl>
##  1     E  0.23   326 1417.391 1417.39
##  2     E  0.21   326 1552.381 1552.38
##  3     E  0.23   327 1421.739 1421.74
##  4     I  0.29   334 1151.724 1151.72
##  5     J  0.31   335 1080.645 1080.65
##  6     J  0.24   336 1400.000 1400.00
##  7     I  0.24   336 1400.000 1400.00
##  8     H  0.26   337 1296.154 1296.15
##  9     E  0.22   337 1531.818 1531.82
## 10     H  0.23   338 1469.565 1469.57
## # ... with 53,930 more rows
…
